[
	[407,"Силовой спорт",0],
[214,"Силовые тренировки",407],
[249,"Армилифтинг",407],
[250,"Армспорт",407],
[253,"Бодибилдинг",407],
[304,"Пауэрлифтинг",407],
[261,"Гиревой спорт",407],
[46,"Йога",0],
[369,"Аэройога",46],
[53,"Фигурное катание",0],
[9,"Гандбол",0],
[10,"Пляжный гандбол",9],
[11,"Баскетбол",0],
[70,"Корфбол",11],
[21,"Стритбол",11],
[12,"Хоккей",0],
[13,"Хоккей на траве",12],
[14,"Хоккей с мячом",12],
[15,"Флорбол",12],
[16,"Гольф",0],
[17,"Крокет",16],
[370,"Мини-гольф",16],
[19,"Боулинг",0],
[20,"Бильярд",0],
[22,"Регби",0],
[23,"Регби-7",22],
[24,"Американский футбол",22],
[71,"Флаг-футбол",22],
[177,"Регбол",22],
[52,"Единоборства",0],
[45,"Кикбоксинг",52],
[43,"Рукопашный бой",52],
[78,"Армейский рукопашный бой",43],
[42,"Тайский бокс",78],
[41,"Бокс",78],
[32,"Самбо",78],
[72,"Боевое самбо",32],
[332,"Современный мечевой бой",72],
[92,"Восточные единоборства",72],
[37,"Айкидо",92],
[39,"Айкидзюдзюцу",92],
[93,"Боевые восточные единоборства",39],
[38,"Иайдо",93],
[44,"Вьетвадао",93],
[40,"Каратэ",93],
[77,"WKF",40],
[75,"Кудо",40],
[76,"Дзэндо",40],
[74,"Киокусинкай",40],
[31,"Дзюдо",74],
[365,"Синтен рю",74],
[159,"Ушу",74],
[158,"Тхэквондо",74],
[275,"Кендо",74],
[239,"Муай-Тай",74],
[288,"Кунг-фу",74],
[279,"Кобудо",74],
[285,"Крав-Мага",74],
[349,"Хапкидо",74],
[350,"Чой Кван До",74],
[363,"Баттодзюцу",74],
[364,"Иайдзюцу",74],
[376,"Кендзюцу",74],
[206,"Джиу-джитсу",74],
[207,"Бразильское джиу-джитсу",206],
[280,"Комплексное единоборство",207],
[345,"Универсальный бой",280],
[403,"Национальные единоборства",345],
[274,"Капоэйра",403],
[318,"Сават",403],
[366,"Русское боевое искусство",403],
[54,"Кёрлинг",0],
[94,"Айсшток",54],
[58,"Аэробика",0],
[95,"Спортивная аэробика",58],
[96,"Фитнес-аэробика",58],
[228,"Стретчинг",96],
[4,"Волейбол",0],
[5,"Пляжный волейбол",4],
[6,"Теннис",0],
[7,"Настольный теннис",6],
[8,"Пляжный теннис",6],
[55,"Сквош",6],
[25,"Бадминтон",6],
[404,"Водный спорт",0],
[36,"Водное поло",404],
[60,"Плавание",404],
[99,"Плавание с ластами",60],
[104,"Синхронное плавание",60],
[98,"Плавание на открытой воде",60],
[100,"Подводное плавание без акваланга",60],
[197,"Водные лыжи",100],
[195,"Прыжки в воду",100],
[201,"Дайвинг",100],
[179,"Гребной спорт",100],
[180,"Гребля на байдарках",179],
[181,"Гребля на каноэ",179],
[182,"Гребля на каяках",179],
[183,"Академическая гребля",179],
[198,"Водно-моторный спорт",183],
[199,"Аквабайк",198],
[200,"Скутер",198],
[157,"Яхтинг",200],
[307,"Подводный спорт",200],
[303,"Парусный спорт",200],
[324,"Сёрфинг",200],
[255,"Вейксёрф",324],
[273,"Кайтсёрфинг",324],
[321,"Сап сёрфинг",324],
[313,"Рафтинг",321],
[236,"Аквааэробика",321],
[87,"Борьба",0],
[49,"Классическая борьба",87],
[160,"Сумо",87],
[89,"Борьба на поясах (кураш)",87],
[88,"Спортивная борьба",87],
[90,"Вольная борьба",87],
[91,"Греко-римская борьба",87],
[264,"Грэпплинг",87],
[292,"Мас-рестлинг",87],
[300,"Панкратион",87],
[358,"Микс файт",87],
[347,"Фри файтинг",87],
[314,"Рестлинг",87],
[315,"Профессиональный рестлинг",314],
[327,"Смешанные боевые искусства (MMA)",315],
[127,"Гимнастика",0],
[34,"Художественная гимнастика",127],
[128,"Воздушная гимнастика",127],
[129,"Спортивная гимнастика",127],
[118,"Батут",129],
[119,"Прыжки на акробатической дорожке",118],
[120,"Прыжки на двойном мини-трампе",118],
[69,"Прыжки на батуте",118],
[226,"Шейпинг",69],
[130,"Эстетическая гимнастика",226],
[131,"Атлетика",0],
[132,"Воздушная атлетика",131],
[133,"Лёгкая атлетика",131],
[126,"Эстафета",133],
[102,"Бег",133],
[122,"Лыжероллерный спорт",102],
[103,"Свимран",102],
[269,"Дуатлон",102],
[299,"Морское многоборье",102],
[343,"Триатлон",102],
[331,"Современное пятиборье (Пентатлон)",102],
[59,"Фехтование",331],
[97,"Историческое фехтование",59],
[134,"Тяжёлая атлетика",97],
[135,"Биатлон",0],
[136,"Арчери-биатлон",135],
[137,"Бобслей",0],
[138,"Скелетон",137],
[320,"Санный спорт",137],
[139,"Велоспорт",0],
[140,"Велокросс",139],
[142,"Велоспорт-шоссе",139],
[143,"Рогейн",139],
[145,"Мультигонки",143],
[146,"Велоориентирование",143],
[144,"Приключенческие гонки",143],
[141,"Велоспорт-трек",144],
[147,"Акробатика",0],
[148,"Акробатический рок-н-ролл",147],
[149,"Воздушная акробатика",147],
[259,"Воздушно-спортивный эквилибр",149],
[150,"Спортивная акробатика",259],
[151,"Шестовая акробатика",259],
[219,"Танцевальная акробатика",259],
[161,"Стрелковый спорт",0],
[162,"Пулевая стрельба",161],
[163,"Стендовая стрельба",161],
[164,"Практическая стрельба",161],
[165,"Стрельба из арбалета",161],
[166,"Стрельба из лука",161],
[382,"Бластерный бой",161],
[202,"Горнолыжный спорт",0],
[203,"Горные лыжи",202],
[204,"Скоростной спуск",202],
[205,"Слалом",202],
[184,"Бейсбол",0],
[185,"Софтбол",184],
[186,"Лапта",184],
[18,"Крикет",184],
[245,"Автоспорт",0],
[248,"Автомодельный спорт",245],
[293,"Маунтинбайк-МТБ",245],
[294,"Даунхил",293],
[295,"Фрирайд",293],
[296,"Дертджампинг",293],
[297,"Стрит-триал",293],
[252,"Байкер-Кросс",293],
[286,"Кросс-кантри",293],
[263,"Городошный спорт",0],
[265,"ГТО",0],
[309,"Полиатлон",265],
[270,"Ездовой спорт",0],
[271,"Гонки на собачьих упряжках",270],
[276,"Кинологический спорт",0],
[277,"Ездовой спорт",276],
[278,"Гонки на собачьих упряжках",276],
[335,"Спортивно-прикладное собаководство",276],
[281,"Конный спорт",0],
[282,"Конкур",281],
[283,"Конькобежный спорт",0],
[284,"Шорт-трек",283],
[291,"Лыжные гонки",0],
[212,"Беговые лыжи",291],
[290,"Лыжное двоеборье",291],
[348,"Фристайл",291],
[1,"Футбол",0],
[2,"Мини-футбол",1],
[27,"Мини-футбол 7х7",2],
[26,"Мини-футбол 8х8",2],
[28,"Мини-футбол 6х6",2],
[29,"Мини-футбол 5х5",2],
[56,"Мини-футбол 4х4",2],
[68,"Мини-футбол 3х3",2],
[381,"Мини-футбол 9х9",2],
[3,"Пляжный футбол",381],
[383,"Танцы",0],
[48,"Клубные танцы",383],
[83,"R'n'B",48],
[81,"Хип-хоп",48],
[230,"Диско",48],
[394,"Shuffle",48],
[395,"House",48],
[396,"ElectroDance",48],
[397,"Tecktonik",48],
[398,"C-walk",48],
[385,"Dub Step",48],
[79,"Спортивные танцы",385],
[35,"Чирлидинг",79],
[73,"Чир спорт",35],
[82,"Брейк-данс",73],
[80,"Латина",73],
[155,"Бачата",73],
[154,"Акробатический рок-н-ролл",73],
[33,"Спортивно-бальные танцы",73],
[187,"Зумба",73],
[387,"Электрик буги",73],
[222,"Балет",387],
[50,"Хореография",222],
[352,"Боди балет",222],
[224,"Современные танцы",352],
[227,"Кизомба",224],
[220,"Буги-вуги",224],
[221,"Линди-хоп",224],
[223,"Тверк",224],
[229,"Джаз",224],
[235,"Свинг",224],
[267,"Джаз-фанк",224],
[390,"Вакинг",224],
[386,"Поппинг",224],
[392,"Джаз модерн",224],
[393,"Contemporary Dance",224],
[234,"Степ",224],
[233,"Народные танцы",234],
[86,"Ирландские танцы",233],
[243,"Фламенко",233],
[379,"Индийские танцы",233],
[367,"Бразильские танцы",233],
[356,"Шотландские танцы",233],
[241,"Европейские танцы",356],
[362,"Вальс",356],
[361,"Румба",356],
[360,"Ча-ча-ча",356],
[353,"Классический танец",356],
[355,"Танго",356],
[359,"Детский танец",356],
[316,"Ритмика",359],
[377,"Уличные танцы",316],
[391,"Вог",377],
[378,"Эстрадные танцы",391],
[240,"Латиноамериканские танцы",391],
[232,"Хастл",240],
[175,"Сальса",240],
[388,"Эротические танцы",175],
[85,"Восточные танцы",388],
[231,"Стрип-денс",388],
[225,"Pole-dance",388],
[156,"Танец живота",388],
[237,"Трайбл",388],
[153,"Пилон",388],
[354,"Стрип-пластика",388],
[389,"Go-Go",388],
[405,"Национальный спорт",0],
[323,"Северное многоборье",405],
[61,"Петанк",405],
[406,"Экстремальный спорт",0],
[66,"Паркур",406],
[67,"Скалолазание",406],
[64,"Скейтборд",406],
[105,"Лонгборд",64],
[346,"Флайджет/Флай борд",105],
[188,"Пейнтбол",105],
[107,"Роллерный спорт",105],
[109,"Фитнес-роликовый спорт",107],
[110,"Агрессив-скейтинг",107],
[116,"Агрессив-скейтинг стрит",110],
[117,"Агрессив-скейтинг парковое катание",110],
[115,"Агрессив-скейтинг верт",110],
[106,"Спидскейтинг на роликах",115],
[108,"Фрискейтинг",115],
[111,"Слалом на роликах",115],
[112,"Фристайл на роликах",115],
[113,"Скоростной фристайл на роликах",112],
[114,"Фристайл-слалом на роликах",112],
[216,"Скалодром",114],
[325,"Скайраннинг",114],
[260,"Воркаут",114],
[246,"Мотоспорт",114],
[247,"Мотокросс",246],
[123,"BMX",246],
[373,"Квадроцикл",246],
[257,"Виндсёрфинг",373],
[254,"Вейкбординг",373],
[301,"Парапланеризм",373],
[189,"Лазертаг",373],
[298,"Маунтинборд",373],
[305,"Планерный спорт",373],
[266,"Дельтапланеризм",373],
[341,"Трейлраннинг",373],
[372,"Страйкбол",373],
[344,"Трикинг",373],
[251,"Аэротруба",373],
[328,"Сноуборд",373],
[329,"Сноубод тренировки",328],
[330,"Сноубод соревнования",328],
[302,"Парашютный спорт",330],
[193,"Прыжки с трамплина",330],
[194,"Прыжки на лыжах с трамплина",193],
[400,"Фитнес",0],
[326,"Скакалка (скиппинг)",400],
[30,"Кроссфит",400],
[215,"Тренировки с собственным весом",400],
[296,"Джампинг",400],
[218,"EMS-тренировки",400],
[242,"TRX",400],
[238,"Пилатес",400],
[380,"Сайклинг",400],
[338,"Стречинг (растяжка)",400],
[351,"Боди фитнес",400],
[217,"Фитнес-тренировки",400],
[401,"Интеллектуальный спорт",0],
[125,"Шашки",401],
[124,"Шахматы",401],
[192,"Нарды",401],
[196,"Дартс",401],
[262,"Го",401],
[402,"Оздоровительный спорт",0],
[371,"Бодифлекс",402],
[357,"Лечебная физкультура",402],
[191,"Общая физическая подготовка",402],
[409,"Развлекательный спорт",0],
[312,"Радиоспорт",409],
[317,"Рыболовный спорт",409],
[306,"Подводная охота (рыбалка)",317],
[340,"Судомодельный спорт",306],
[244,"Авиамодельный спорт",306],
[272,"Исторические и военные реконструкции",306],
[57,"Бампербол",306],
[63,"Футволей",306],
[62,"Флаинг диск (фрисби)",306],
[167,"Алтимат фрисби",62],
[168,"Сити алтимат",62],
[169,"Гатс",62],
[170,"Флаббер-гатс",62],
[171,"Дабл диск корт",62],
[172,"Фрисби-фристайл",62],
[173,"Диск-гольф",62],
[174,"Дог-фрисби",62],
[190,"Перетягивание каната",174],
[208,"Картинг",174],
[256,"Весёлые старты",174],
[319,"Самокат",174],
[368,"Жонглирование",174],
[212,"Киберспорт",174],
[411,"FIFA",212],
[412,"FIFA 16",411],
[413,"FIFA 17",411],
[414,"FIFA 19",411],
[415,"DOTA",414],
[416,"DOTA 2",415],
[417,"Counter-Strike",416],
[418,"CS:GO",417],
[419,"Counter-Strike: Global Offensive",417],
[420,"League of Legends",419],
[421,"Heroes of the Storm",419],
[422,"StarCraft",419],
[423,"StarCraft 2",422],
[424,"Halo",423],
[425,"Halo 5",424],
[426,"Hearthstone: Heroes of Warcraft",425],
[427,"Mortal Kombat",425],
[428,"Mortal Kombat X",427],
[429,"Mortal Kombat 11",427],
[430,"Project CARS",429],
[431,"Worlds of Tanks",429],
[432,"Smite",429],
[433,"Doom",429],
[434,"Doom 2",433],
[435,"Quake",434],
[436,"Quake 3",435],
[437,"Quake Champions",435],
[438,"Quake Live",435],
[439,"Overwatch",438],
[440,"PlayerUnknown's BattleGrounds",438],
[441,"Warface",438],
[442,"Tank Force",438],
[443,"War Thunder",438],
[444,"World of Warships",438],
[445,"Point Blank",438],
[446,"Tekken",438],
[447,"Tekken 7",446],
[448,"Ultra Street Fighter",447],
[449,"Ultra Street Fighter IV",448],
[450,"Dungellion",449],
[451,"Alliance of Valiant Arms: Dog Tag",449],
[452,"Heroes of Newerth",449],
[453,"Reflex Arena",449],
[454,"Splitgate: Arena Warfare",449],
[455,"Realm Royale",449],
[456,"Battle Carnival",449],
[457,"Team Fortress",449],
[458,"Team Fortress 2",457],
[459,"TOXIKK",458],
[460,"WarCraft",458],
[461,"WarCraft 3",460],
[462,"World of WarCraft",460],
[463,"ShootMania Storm",462],
[464,"CrossFire",462],
[465,"Fortnite",462],
[466,"Call of Duty",462],
[467,"Artifact",462],
[468,"Fallout 76",462],
[209,"Карточные игры",468],
[210,"Спортивный бридж",209],
[211,"Спортивный покер",209],
[410,"Соревновательный спорт",0],
[258,"Военно-спортивные игры",410],
[333,"Соревнования по службе спасения на воде",410],
[311,"Президентские спортивные игры",410],
[310,"Президентские состязания",410],
[308,"Пожарно-прикладные спортивные соревнования",410],
[334,"Спортивная ходьба",410],
[322,"Скандинавская ходьба (северная)",334],
[336,"Спортивное ориентирование",322],
[337,"Спортивный туризм",322],
[342,"Треккинг (хайкинг)",337]]